{"errcode":0,"datas":{"content":[{"id":1,"userId":null,"name":"李四","sex":null,"teachAge":null,"avatar":"http://siqihsc.oss-cn-shenzhen.aliyuncs.com//image/e7e2c91b-8a19-45e4-a3bf-0528cb92033d.jpg","gradeName":null,"subjectName":"语文","status":0,"classNumber":0,"createDate":1531818191514,"recentClassTime":null,"enabled":true,"nickName":null,"teacherSpecial":null,"teacherLabelList":["标签1","标签2"],"teacherExperience":null,"graduateSchool":null,"honour":null,"motto":null,"evaluate":2.5,"remark":null,"username":null,"mobile":null,"jobNumber":null,"recommended":null},{"id":2,"userId":null,"name":"张三","sex":null,"teachAge":null,"avatar":"http://siqihsc.oss-cn-shenzhen.aliyuncs.com//image/4731eda0-7ddd-48f4-906d-b51aebd29c73.JPG","gradeName":null,"subjectName":null,"status":0,"classNumber":0,"createDate":1531818191514,"recentClassTime":null,"enabled":true,"nickName":null,"teacherSpecial":null,"teacherLabelList":["标签3","标签4"],"teacherExperience":null,"graduateSchool":null,"honour":null,"motto":null,"evaluate":null,"remark":null,"username":null,"mobile":null,"jobNumber":null,"recommended":null},{"id":3,"userId":null,"name":"王海","sex":null,"teachAge":null,"avatar":"http://siqihsc.oss-cn-shenzhen.aliyuncs.com//image/4f6dbcb9-618c-4b0d-9d3c-bfa3f01aa149.jpg","gradeName":null,"subjectName":null,"status":0,"classNumber":0,"createDate":1531818191514,"recentClassTime":null,"enabled":true,"nickName":null,"teacherSpecial":null,"teacherLabelList":[],"teacherExperience":null,"graduateSchool":null,"honour":null,"motto":null,"evaluate":null,"remark":null,"username":null,"mobile":null,"jobNumber":null,"recommended":null},{"id":4,"userId":null,"name":"李晓","sex":null,"teachAge":null,"avatar":"http://siqihsc.oss-cn-shenzhen.aliyuncs.com//image/69b7dfa5-a2ae-4372-b72b-6f3a38140f2f.JPG","gradeName":null,"subjectName":null,"status":0,"classNumber":0,"createDate":1531818191514,"recentClassTime":null,"enabled":true,"nickName":null,"teacherSpecial":null,"teacherLabelList":[],"teacherExperience":null,"graduateSchool":null,"honour":null,"motto":null,"evaluate":null,"remark":null,"username":null,"mobile":null,"jobNumber":null,"recommended":null},{"id":5,"userId":null,"name":"李四1","sex":null,"teachAge":null,"avatar":"http://siqihsc.oss-cn-shenzhen.aliyuncs.com//image/e7e2c91b-8a19-45e4-a3bf-0528cb92033d.jpg","gradeName":null,"subjectName":null,"status":0,"classNumber":0,"createDate":1531818191514,"recentClassTime":null,"enabled":true,"nickName":null,"teacherSpecial":null,"teacherLabelList":[],"teacherExperience":null,"graduateSchool":null,"honour":null,"motto":null,"evaluate":null,"remark":null,"username":null,"mobile":null,"jobNumber":null,"recommended":null},{"id":6,"userId":null,"name":"李四2","sex":null,"teachAge":null,"avatar":"http://siqihsc.oss-cn-shenzhen.aliyuncs.com//image/e7e2c91b-8a19-45e4-a3bf-0528cb92033d.jpg","gradeName":null,"subjectName":null,"status":0,"classNumber":0,"createDate":1531818191514,"recentClassTime":null,"enabled":true,"nickName":null,"teacherSpecial":null,"teacherLabelList":[],"teacherExperience":null,"graduateSchool":null,"honour":null,"motto":null,"evaluate":null,"remark":null,"username":null,"mobile":null,"jobNumber":null,"recommended":null},{"id":7,"userId":null,"name":"李四3","sex":null,"teachAge":null,"avatar":"http://siqihsc.oss-cn-shenzhen.aliyuncs.com//image/e7e2c91b-8a19-45e4-a3bf-0528cb92033d.jpg","gradeName":null,"subjectName":null,"status":0,"classNumber":0,"createDate":1531818191514,"recentClassTime":null,"enabled":true,"nickName":null,"teacherSpecial":null,"teacherLabelList":[],"teacherExperience":null,"graduateSchool":null,"honour":null,"motto":null,"evaluate":null,"remark":null,"username":null,"mobile":null,"jobNumber":null,"recommended":null},{"id":8,"userId":null,"name":"李四4","sex":null,"teachAge":null,"avatar":"http://siqihsc.oss-cn-shenzhen.aliyuncs.com//image/e7e2c91b-8a19-45e4-a3bf-0528cb92033d.jpg","gradeName":null,"subjectName":null,"status":0,"classNumber":0,"createDate":1531818191514,"recentClassTime":null,"enabled":true,"nickName":null,"teacherSpecial":null,"teacherLabelList":[],"teacherExperience":null,"graduateSchool":null,"honour":null,"motto":null,"evaluate":null,"remark":null,"username":null,"mobile":null,"jobNumber":null,"recommended":null},{"id":9,"userId":null,"name":"李四5","sex":null,"teachAge":null,"avatar":"http://siqihsc.oss-cn-shenzhen.aliyuncs.com//image/e7e2c91b-8a19-45e4-a3bf-0528cb92033d.jpg","gradeName":null,"subjectName":null,"status":0,"classNumber":0,"createDate":1531818191515,"recentClassTime":null,"enabled":true,"nickName":null,"teacherSpecial":null,"teacherLabelList":[],"teacherExperience":null,"graduateSchool":null,"honour":null,"motto":null,"evaluate":null,"remark":null,"username":null,"mobile":null,"jobNumber":null,"recommended":null},{"id":10,"userId":null,"name":"李四6","sex":null,"teachAge":null,"avatar":"http://siqihsc.oss-cn-shenzhen.aliyuncs.com//image/e7e2c91b-8a19-45e4-a3bf-0528cb92033d.jpg","gradeName":null,"subjectName":null,"status":0,"classNumber":0,"createDate":1531818191515,"recentClassTime":null,"enabled":true,"nickName":null,"teacherSpecial":null,"teacherLabelList":[],"teacherExperience":null,"graduateSchool":null,"honour":null,"motto":null,"evaluate":null,"remark":null,"username":null,"mobile":null,"jobNumber":null,"recommended":null}],"totalPages":3,"last":false,"totalElements":23,"number":0,"size":10,"sort":null,"first":true,"numberOfElements":10},"message":"SUCCESS"}